module gitlab.com/josephburnett/org-everything

go 1.20

require (
	cloud.google.com/go/compute v1.19.0 // indirect
	cloud.google.com/go/compute/metadata v0.2.3 // indirect
	github.com/golang/groupcache v0.0.0-20200121045136-8c9f03a8e57e // indirect
	github.com/golang/protobuf v1.5.3 // indirect
	github.com/google/go-querystring v1.1.0 // indirect
	github.com/google/s2a-go v0.1.4 // indirect
	github.com/google/uuid v1.3.0 // indirect
	github.com/googleapis/enterprise-certificate-proxy v0.2.3 // indirect
	github.com/googleapis/gax-go/v2 v2.8.0 // indirect
	github.com/hashicorp/go-cleanhttp v0.5.2 // indirect
	github.com/hashicorp/go-retryablehttp v0.7.2 // indirect
	github.com/niklasfasching/go-org v1.6.6 // indirect
	github.com/xanzy/go-gitlab v0.83.0 // indirect
	go.opencensus.io v0.24.0 // indirect
	golang.org/x/crypto v0.1.0 // indirect
	golang.org/x/net v0.10.0 // indirect
	golang.org/x/oauth2 v0.8.0 // indirect
	golang.org/x/sys v0.8.0 // indirect
	golang.org/x/text v0.9.0 // indirect
	golang.org/x/time v0.3.0 // indirect
	google.golang.org/api v0.124.0 // indirect
	google.golang.org/appengine v1.6.7 // indirect
	google.golang.org/genproto v0.0.0-20230410155749-daa745c078e1 // indirect
	google.golang.org/grpc v1.55.0 // indirect
	google.golang.org/protobuf v1.30.0 // indirect
)
